…
```r
dailyImputed
```

```
## # A tibble: 61 x 4
##    date                steps MeanSteps MedianSteps
##    <dttm>              <dbl>     <dbl>       <dbl>
##  1 2012-10-01 00:00:00     0         0           0
##  2 2012-10-02 00:00:00   126       126         126
##  3 2012-10-03 00:00:00 11352     11352       11352
##  4 2012-10-04 00:00:00 12116     12116       12116
##  5 2012-10-05 00:00:00 13294     13294       13294
##  6 2012-10-06 00:00:00 15420     15420       15420
##  7 2012-10-07 00:00:00 11015     11015       11015
##  8 2012-10-08 00:00:00     0         0           0
##  9 2012-10-09 00:00:00 12811     12811       12811
## 10 2012-10-10 00:00:00  9900      9900        9900
## # ... with 51 more rows
```
…
